^D:\王佩婕2010215\VISUAL STUDIO\NMAXPROFIT\NMAXPROFIT\DEBUG\MAIN.OBJ
D:\王佩婕2010215\VISUAL STUDIO\NMAXPROFIT\DEBUG\NMAXPROFIT.ILK
D:\王佩婕2010215\VISUAL STUDIO\NMAXPROFIT\DEBUG\NMAXPROFIT.EXE
D:\王佩婕2010215\VISUAL STUDIO\NMAXPROFIT\DEBUG\NMAXPROFIT.PDB
